<?xml version="1.0" encoding="UTF-8"?>
<svg width="50px" height="50px" viewBox="0 0 50 50" version="1.1" xmlns="http://www.w3.org/2000/svg" xmlns:xlink="http://www.w3.org/1999/xlink">
    <title>icon_printsolutions / dryers</title>
    <g id="Page-2" stroke="none" stroke-width="1" fill="none" fill-rule="evenodd">
        <g id="M&amp;R_PrintingSolutions" transform="translate(-805.000000, -144.000000)" fill="#FFFFFF" fill-rule="nonzero">
            <g id="Rectangle-2" transform="translate(0.000000, 120.000000)">
                <g id="Group-7" transform="translate(300.000000, 24.000000)">
                    <g id="Group-5" transform="translate(440.000000, 0.000000)">
                        <g id="icon_printsolutions-/-dryers" transform="translate(65.000000, 0.000000)">
                            <path d="M21.7919729,29.3103448 L12.6907858,29.3103448 C11.8712832,29.3103448 11.2068966,29.9858046 11.2068966,30.8189655 C11.2068966,31.6521264 11.8712832,32.3275862 12.6907858,32.3275862 L21.7919729,32.3275862 C22.6114754,32.3275862 23.2758621,31.6521264 23.2758621,30.8189655 C23.2758621,29.9858046 22.6114754,29.3103448 21.7919729,29.3103448 Z" id="Path"></path>
                            <path d="M21.7919729,35.3448276 L12.6907858,35.3448276 C11.8712832,35.3448276 11.2068966,36.0202874 11.2068966,36.8534483 C11.2068966,37.6866092 11.8712832,38.362069 12.6907858,38.362069 L21.7919729,38.362069 C22.6114754,38.362069 23.2758621,37.6866092 23.2758621,36.8534483 C23.2758621,36.0202874 22.6114754,35.3448276 21.7919729,35.3448276 Z" id="Path"></path>
                            <circle id="Oval" cx="26.9396552" cy="31.25" r="1.50862069"></circle>
                            <circle id="Oval" cx="26.9396552" cy="36.4224138" r="1.50862069"></circle>
                            <circle id="Oval" cx="7.11206897" cy="31.25" r="1.50862069"></circle>
                            <circle id="Oval" cx="7.11206897" cy="36.4224138" r="1.50862069"></circle>
                            <path d="M26.9712396,17.6724138 L7.08048454,17.6724138 C6.26476665,17.6724138 5.60344828,18.3157088 5.60344828,19.1091954 L5.60344828,24.8563218 C5.60344828,25.6498084 6.26476665,26.2931034 7.08048454,26.2931034 L26.9712396,26.2931034 C27.7869575,26.2931034 28.4482759,25.6498084 28.4482759,24.8563218 L28.4482759,19.1091954 C28.4482759,18.3157088 27.7869575,17.6724138 26.9712396,17.6724138 Z M25.4942033,23.4195402 L8.55752081,23.4195402 L8.55752081,20.545977 L25.4942033,20.545977 L25.4942033,23.4195402 Z" id="Shape"></path>
                            <path d="M47.0703125,13.1425781 L47.0703125,4.39453125 C47.0703125,3.58554687 46.4144531,2.9296875 45.6054688,2.9296875 L39.9824219,2.9296875 C39.3777344,1.22470703 37.7495117,0 35.8398438,0 C34.0333008,0 28.9240234,2.35 27.4010742,3.0703125 C26.8890625,3.3125 26.5625,3.828125 26.5625,4.39453125 C26.5625,4.9609375 26.8890625,5.4765625 27.4010742,5.71875 C28.9240234,6.4390625 34.0333008,8.7890625 35.8398438,8.7890625 C37.7495117,8.7890625 39.3777344,7.56435547 39.9824219,5.859375 L44.140625,5.859375 L44.140625,13.1425781 C42.4356445,13.7472656 41.2109375,15.3754883 41.2109375,17.2851562 L41.2109375,27.0507812 C41.2109375,28.9604492 42.4356445,30.5886719 44.140625,31.1933594 L44.140625,39.7460938 C44.140625,40.6883789 43.3739258,41.4550781 42.4316406,41.4550781 C41.4893555,41.4550781 40.7226562,40.6883789 40.7226562,39.7460938 L40.7226562,36.0839844 C40.7226562,33.5262695 38.6416992,31.4453125 36.0839844,31.4453125 L34.375,31.4453125 L34.375,13.3789062 C34.375,12.5699219 33.7191406,11.9140625 32.9101562,11.9140625 L1.46484375,11.9140625 C0.655859375,11.9140625 0,12.5699219 0,13.3789062 L0,42.6757812 C0,43.4847656 0.655859375,44.140625 1.46484375,44.140625 L2.9296875,44.140625 L2.9296875,48.5351562 C2.9296875,49.3441406 3.58554687,50 4.39453125,50 L10.2539062,50 C11.0628906,50 11.71875,49.3441406 11.71875,48.5351562 L11.71875,44.140625 L22.65625,44.140625 L22.65625,48.5351562 C22.65625,49.3441406 23.3121094,50 24.1210938,50 L29.9804688,50 C30.7894531,50 31.4453125,49.3441406 31.4453125,48.5351562 L31.4453125,44.140625 L32.9101562,44.140625 C33.7191406,44.140625 34.375,43.4847656 34.375,42.6757812 L34.375,34.375 L36.0839844,34.375 C37.0262695,34.375 37.7929688,35.1416992 37.7929688,36.0839844 L37.7929688,39.7460938 C37.7929688,42.3038086 39.8739258,44.3847656 42.4316406,44.3847656 C44.9893555,44.3847656 47.0703125,42.3038086 47.0703125,39.7460938 L47.0703125,31.1933594 C48.775293,30.5886719 50,28.9604492 50,27.0507812 L50,17.2851562 C50,15.3754883 48.775293,13.7472656 47.0703125,13.1425781 Z M35.840918,5.859375 C35.3104492,5.85058594 33.5618164,5.21298828 31.6193359,4.39443359 C33.5613281,3.57587891 35.3094727,2.93857422 35.8398438,2.9296875 C36.6475586,2.9296875 37.3046875,3.58681641 37.3046875,4.39453125 C37.3046875,5.20224609 36.6475586,5.859375 35.840918,5.859375 L35.840918,5.859375 Z M8.7890625,47.0703125 L5.859375,47.0703125 L5.859375,44.140625 L8.7890625,44.140625 L8.7890625,47.0703125 Z M28.515625,47.0703125 L25.5859375,47.0703125 L25.5859375,44.140625 L28.515625,44.140625 L28.515625,47.0703125 Z M31.4453125,41.2109375 L2.9296875,41.2109375 L2.9296875,14.84375 L31.4453125,14.84375 L31.4453125,41.2109375 Z M45.6054687,15.8203125 C46.4131836,15.8203125 47.0703125,16.4774414 47.0703125,17.2851562 L47.0703125,18.75 L44.140625,18.75 L44.140625,17.2851562 C44.140625,16.4774414 44.7977539,15.8203125 45.6054687,15.8203125 Z M45.6054687,28.515625 C44.7977539,28.515625 44.140625,27.8584961 44.140625,27.0507812 L44.140625,21.6796875 L47.0703125,21.6796875 L47.0703125,27.0507812 C47.0703125,27.8584961 46.4131836,28.515625 45.6054687,28.515625 Z" id="Shape"></path>
                        </g>
                    </g>
                </g>
            </g>
        </g>
    </g>
</svg>