<?xml version="1.0" encoding="UTF-8"?>
<svg width="24px" height="24px" viewBox="0 0 24 24" version="1.1" xmlns="http://www.w3.org/2000/svg" xmlns:xlink="http://www.w3.org/1999/xlink">
    <title>icon/prod/honeycomb</title>
    <g id="Page-1" stroke="none" stroke-width="1" fill="none" fill-rule="evenodd">
        <g id="Copperhead" transform="translate(-962.000000, -1225.000000)" fill="#FFFFFF">
            <g id="Section-2">
                <g id="Rectangle-2" transform="translate(0.000000, 946.000000)">
                    <g id="Group-17" transform="translate(958.000000, 274.000000)">
                        <g id="Icon-Size-/-32x" transform="translate(0.000000, 1.000000)">
                            <g id="Icon-/-select-all">
                                <path d="M4,6.66666667 L6.66666667,6.66666667 L6.66666667,4 C5.2,4 4,5.2 4,6.66666667 L4,6.66666667 Z M4,17.3333333 L6.66666667,17.3333333 L6.66666667,14.6666667 L4,14.6666667 L4,17.3333333 L4,17.3333333 Z M9.33333333,28 L12,28 L12,25.3333333 L9.33333333,25.3333333 L9.33333333,28 L9.33333333,28 Z M4,12 L6.66666667,12 L6.66666667,9.33333333 L4,9.33333333 L4,12 L4,12 Z M17.3333333,4 L14.6666667,4 L14.6666667,6.66666667 L17.3333333,6.66666667 L17.3333333,4 L17.3333333,4 Z M25.3333333,4 L25.3333333,6.66666667 L28,6.66666667 C28,5.2 26.8,4 25.3333333,4 L25.3333333,4 Z M6.66666667,28 L6.66666667,25.3333333 L4,25.3333333 C4,26.8 5.2,28 6.66666667,28 L6.66666667,28 Z M4,22.6666667 L6.66666667,22.6666667 L6.66666667,20 L4,20 L4,22.6666667 L4,22.6666667 Z M12,4 L9.33333333,4 L9.33333333,6.66666667 L12,6.66666667 L12,4 L12,4 Z M14.6666667,28 L17.3333333,28 L17.3333333,25.3333333 L14.6666667,25.3333333 L14.6666667,28 L14.6666667,28 Z M25.3333333,17.3333333 L28,17.3333333 L28,14.6666667 L25.3333333,14.6666667 L25.3333333,17.3333333 L25.3333333,17.3333333 Z M25.3333333,28 C26.8,28 28,26.8 28,25.3333333 L25.3333333,25.3333333 L25.3333333,28 L25.3333333,28 Z M25.3333333,12 L28,12 L28,9.33333333 L25.3333333,9.33333333 L25.3333333,12 L25.3333333,12 Z M25.3333333,22.6666667 L28,22.6666667 L28,20 L25.3333333,20 L25.3333333,22.6666667 L25.3333333,22.6666667 Z M20,28 L22.6666667,28 L22.6666667,25.3333333 L20,25.3333333 L20,28 L20,28 Z M20,6.66666667 L22.6666667,6.66666667 L22.6666667,4 L20,4 L20,6.66666667 L20,6.66666667 Z M9.33333333,22.6666667 L22.6666667,22.6666667 L22.6666667,9.33333333 L9.33333333,9.33333333 L9.33333333,22.6666667 L9.33333333,22.6666667 Z M12,12 L20,12 L20,20 L12,20 L12,12 L12,12 Z" id="Shape"></path>
                            </g>
                        </g>
                    </g>
                </g>
            </g>
        </g>
    </g>
</svg>