<?xml version="1.0" encoding="UTF-8"?>
<svg width="22px" height="22px" viewBox="0 0 22 22" version="1.1" xmlns="http://www.w3.org/2000/svg" xmlns:xlink="http://www.w3.org/1999/xlink">
    <title>icon/honeycomb/redflashtime</title>
    <g id="Page-1" stroke="none" stroke-width="1" fill="none" fill-rule="evenodd">
        <g id="Copperhead" transform="translate(-79.000000, -7229.000000)" fill="#FFFFFF">
            <g id="Rectangle-3" transform="translate(-1.000000, 4700.000000)">
                <g id="Group-15" transform="translate(0.000000, 1636.000000)">
                    <g id="Group-7" transform="translate(1.000000, 0.000000)">
                        <g id="Group-24" transform="translate(74.000000, 714.000000)">
                            <g id="Group-22" transform="translate(0.000000, 167.000000)">
                                <g id="Icon-Size-/-32x" transform="translate(0.000000, 7.000000)">
                                    <g id="Icon-/-apps">
                                        <path d="M5.33333333,10.6666667 L10.6666667,10.6666667 L10.6666667,5.33333333 L5.33333333,5.33333333 L5.33333333,10.6666667 L5.33333333,10.6666667 Z M13.3333333,26.6666667 L18.6666667,26.6666667 L18.6666667,21.3333333 L13.3333333,21.3333333 L13.3333333,26.6666667 L13.3333333,26.6666667 Z M5.33333333,26.6666667 L10.6666667,26.6666667 L10.6666667,21.3333333 L5.33333333,21.3333333 L5.33333333,26.6666667 L5.33333333,26.6666667 Z M5.33333333,18.6666667 L10.6666667,18.6666667 L10.6666667,13.3333333 L5.33333333,13.3333333 L5.33333333,18.6666667 L5.33333333,18.6666667 Z M13.3333333,18.6666667 L18.6666667,18.6666667 L18.6666667,13.3333333 L13.3333333,13.3333333 L13.3333333,18.6666667 L13.3333333,18.6666667 Z M21.3333333,5.33333333 L21.3333333,10.6666667 L26.6666667,10.6666667 L26.6666667,5.33333333 L21.3333333,5.33333333 L21.3333333,5.33333333 Z M13.3333333,10.6666667 L18.6666667,10.6666667 L18.6666667,5.33333333 L13.3333333,5.33333333 L13.3333333,10.6666667 L13.3333333,10.6666667 Z M21.3333333,18.6666667 L26.6666667,18.6666667 L26.6666667,13.3333333 L21.3333333,13.3333333 L21.3333333,18.6666667 L21.3333333,18.6666667 Z M21.3333333,26.6666667 L26.6666667,26.6666667 L26.6666667,21.3333333 L21.3333333,21.3333333 L21.3333333,26.6666667 L21.3333333,26.6666667 Z" id="Shape"></path>
                                    </g>
                                </g>
                            </g>
                        </g>
                    </g>
                </g>
            </g>
        </g>
    </g>
</svg>