<?xml version="1.0" encoding="UTF-8"?>
<svg width="24px" height="24px" viewBox="0 0 24 24" version="1.1" xmlns="http://www.w3.org/2000/svg" xmlns:xlink="http://www.w3.org/1999/xlink">
    <title>icon/honeycomb/redinkclog</title>
    <g id="Page-1" stroke="none" stroke-width="1" fill="none" fill-rule="evenodd">
        <g id="Copperhead" transform="translate(-78.000000, -7061.000000)" fill="#FFFFFF">
            <g id="Rectangle-3" transform="translate(-1.000000, 4700.000000)">
                <g id="Group-15" transform="translate(0.000000, 1636.000000)">
                    <g id="Group-7" transform="translate(1.000000, 0.000000)">
                        <g id="Group-24" transform="translate(74.000000, 714.000000)">
                            <g id="Group-23">
                                <g id="Icon-Size-/-32x" transform="translate(0.000000, 7.000000)">
                                    <g id="Icon-/-exit-to-app">
                                        <path d="M13.4666667,20.8 L15.3333333,22.6666667 L22,16 L15.3333333,9.33333333 L13.4666667,11.2 L16.9333333,14.6666667 L4,14.6666667 L4,17.3333333 L16.9333333,17.3333333 L13.4666667,20.8 L13.4666667,20.8 Z M25.3333333,4 L6.66666667,4 C5.2,4 4,5.2 4,6.66666667 L4,12 L6.66666667,12 L6.66666667,6.66666667 L25.3333333,6.66666667 L25.3333333,25.3333333 L6.66666667,25.3333333 L6.66666667,20 L4,20 L4,25.3333333 C4,26.8 5.2,28 6.66666667,28 L25.3333333,28 C26.8,28 28,26.8 28,25.3333333 L28,6.66666667 C28,5.2 26.8,4 25.3333333,4 L25.3333333,4 Z" id="Shape"></path>
                                    </g>
                                </g>
                            </g>
                        </g>
                    </g>
                </g>
            </g>
        </g>
    </g>
</svg>