<?xml version="1.0" encoding="UTF-8"?>
<svg width="24px" height="30px" viewBox="0 0 24 30" version="1.1" xmlns="http://www.w3.org/2000/svg" xmlns:xlink="http://www.w3.org/1999/xlink">
    <title>icon/honeycomb/smoothsurface</title>
    <g id="Page-1" stroke="none" stroke-width="1" fill="none" fill-rule="evenodd">
        <g id="Copperhead" transform="translate(-78.000000, -7393.000000)" fill="#FFFFFF">
            <g id="Rectangle-3" transform="translate(-1.000000, 4700.000000)">
                <g id="Group-15" transform="translate(0.000000, 1636.000000)">
                    <g id="Group-7" transform="translate(1.000000, 0.000000)">
                        <g id="Group-24" transform="translate(74.000000, 714.000000)">
                            <g id="Group-21" transform="translate(0.000000, 334.000000)">
                                <g id="Icon-Size-/-32x" transform="translate(0.000000, 8.000000)">
                                    <g id="Icon-/-beenhere">
                                        <path d="M25.3333333,1.33333333 L6.66666667,1.33333333 C5.2,1.33333333 4,2.53333333 4,4 L4,21.2 C4,22.1333333 4.4,22.9333333 5.2,23.4666667 L16,30.6666667 L26.8,23.4666667 C27.4666667,22.9333333 28,22.1333333 28,21.2 L28,4 C28,2.53333333 26.8,1.33333333 25.3333333,1.33333333 L25.3333333,1.33333333 Z M13.3333333,21.3333333 L6.66666667,14.6666667 L8.53333333,12.8 L13.3333333,17.6 L23.4666667,7.46666667 L25.3333333,9.33333333 L13.3333333,21.3333333 L13.3333333,21.3333333 Z" id="Shape"></path>
                                    </g>
                                </g>
                            </g>
                        </g>
                    </g>
                </g>
            </g>
        </g>
    </g>
</svg>