<?xml version="1.0" encoding="UTF-8"?>
<svg width="44px" height="15px" viewBox="0 0 44 15" version="1.1" xmlns="http://www.w3.org/2000/svg" xmlns:xlink="http://www.w3.org/1999/xlink">
    <title>Favicon/Transparent/52</title>
    <g id="Components" stroke="none" stroke-width="1" fill="none" fill-rule="evenodd">
        <g id="Favicon" transform="translate(-4.000000, -19.000000)" fill="#1D77FF">
            <g id="Icon-Size-/-52x">
                <g id="Icon-/-MR">
                    <path d="M43.5024694,19.5 L30.1835675,19.5 L30.022054,20.3380442 C30.401817,20.356212 30.7332039,20.4181375 31.0088581,20.529249 C31.3380158,20.6622947 31.5907081,20.8500654 31.7650401,21.0924501 C31.9276683,21.3256402 32.0179554,21.6060222 32.0362357,21.9343716 C32.0541817,22.263718 31.9981145,22.6188759 31.8710438,22.9997346 C31.784881,23.2537511 31.665167,23.5331361 31.5111217,23.8370033 C31.356519,24.1412028 31.1632379,24.4282316 30.930275,24.698865 C30.6773597,24.9858937 30.3837596,25.2550871 30.0490287,25.5034539 C29.715078,25.752153 29.2945186,25.9734898 28.7896914,26.1667994 L29.9085821,28.5304939 C29.9085821,28.5304939 30.5177411,27.7521596 30.8660708,26.0652149 C31.409911,26.9953165 31.5840201,27.2980759 31.931904,27.8385674 C31.6272688,28.6388359 31.0834286,29.4602632 30.6313245,30.0148235 L31.9490697,32.7739996 L31.8934484,32.9401683 L29.081731,32.9401683 L28.6046586,31.8949671 C28.2952304,32.1449956 27.984576,32.3573592 27.6725841,32.5346058 L27.4177739,33.8583058 L34.2039054,33.8583058 L34.6764077,31.4039939 C34.82566,30.6311987 34.9238611,29.915787 34.992078,29.2595314 C35.2737513,29.915787 35.5037047,30.3412897 35.6055841,30.5152129 L37.5679344,33.8583058 L46.1420841,33.8583058 L42.2141511,27.9061426 C45.2751053,27.5587392 47.074493,26.0896971 47.5623775,23.5583938 C48.0723322,20.9106616 46.711004,19.5 43.5024694,19.5 M16.3259214,19.5312017 L16.8663381,24.3866285 C16.9467758,25.1763353 17.0518693,26.0433561 17.0639182,26.9876908 C17.3920283,26.1977631 17.8045926,25.3689575 18.2567621,24.444393 L18.2567621,24.444393 L20.6657667,19.5312017 L29.9100835,19.5312017 L29.7461958,20.3782313 C29.7139537,20.381103 29.6808192,20.3825388 29.6489118,20.3858522 C29.2844318,20.4237361 28.943157,20.5016023 28.6241951,20.6192299 C28.1526135,20.7934072 27.748305,21.0208207 27.4120507,21.3020226 C27.0839405,21.5726214 26.8036914,21.8769071 26.5704108,22.215984 C26.3379111,22.5550609 26.1567309,22.917332 26.0266471,23.30346 C25.916868,23.6285099 25.8479213,23.9213089 25.8204766,24.180642 C25.7912467,24.4389811 25.7939243,24.6735737 25.8280629,24.8830945 C25.8628709,25.1038811 25.9234503,25.3078795 26.0121438,25.4949792 C26.1006141,25.6822999 26.1990137,25.8616683 26.3073425,26.0329739 C26.0755122,26.1707032 25.8256085,26.3362655 25.5590818,26.5293295 C25.2915509,26.722283 25.0369615,26.9536726 24.7944211,27.2230566 C24.5399433,27.4988465 24.3046545,27.8107531 24.0876622,28.1577823 C23.8707815,28.5051428 23.6835769,28.9124769 23.5262714,29.3809995 C23.1450567,30.5105563 23.148069,31.4261744 23.5339694,32.1292896 C23.9197582,32.8325153 24.6557469,33.1829684 25.7402619,33.1829684 C26.2619359,33.1829684 26.7915309,33.078705 27.3302742,32.8720558 L27.3302742,32.8720558 L27.1419539,33.8467639 L20.3499286,33.8467639 L21.3928302,28.452238 C21.39495,28.4425185 21.3971812,28.430811 21.3991894,28.4212019 L21.3991894,28.4212019 L21.8563793,26.0548427 C21.3432958,27.1248678 20.9203561,27.9244046 20.6605232,28.413581 L20.6605232,28.413581 L17.7614172,33.8467639 L13.7139815,33.8467639 L12.8753538,28.3167177 C12.7922386,27.739072 12.6810091,26.9108186 12.5936544,25.8507339 C12.4333367,27.0838914 12.2729074,27.9124761 12.1835446,28.3752554 L12.1835446,28.3752554 L11.1254702,33.8467639 L4.33333333,33.8467639 L7.10146296,19.5312017 L16.3259214,19.5312017 Z M26.6993882,27.5995571 L28.1540973,30.7207436 C27.8815458,30.9411054 27.6288163,31.0901056 27.3959086,31.1662026 C27.1632212,31.2422995 26.9142358,31.281174 26.6500536,31.281174 C26.4660401,31.281174 26.2929286,31.2370135 26.128737,31.1488027 C25.9644352,31.0605919 25.8346016,30.9281105 25.7378045,30.7516889 C25.6440909,30.5806635 25.5906818,30.3611827 25.5785684,30.0939073 C25.5665651,29.8257509 25.6219564,29.5078176 25.7454029,29.1384555 C25.8612511,28.7911187 26.0192759,28.4750575 26.2187065,28.1904923 C26.4191282,27.9068082 26.5793554,27.7100133 26.6993882,27.5995571 L26.6993882,27.5995571 Z M37.7735882,23.5003455 C39.504759,23.5003455 40.2801131,23.7129307 40.0713382,24.7950213 C39.8408275,25.9929869 38.8949312,26.3604413 37.0672313,26.3604413 L35.648164,26.3604413 L36.199138,23.5003455 L37.7735882,23.5003455 Z M29.0555029,22.0771318 C29.1158999,22.0771318 29.192641,22.0879862 29.2883238,22.1090501 C29.3829242,22.1314036 29.4620465,22.1849231 29.525366,22.270146 C29.5847889,22.3555838 29.6185593,22.4806776 29.6258112,22.6442453 C29.6338209,22.8075981 29.5902008,23.0286617 29.496791,23.3082959 C29.3847642,23.6405898 29.224896,23.9509601 29.0178359,24.2379021 C28.8099098,24.5245217 28.5573895,24.7859936 28.2608162,25.0224253 C28.0692341,24.7105505 27.9300395,24.4081329 27.8433405,24.1130232 C27.7572909,23.8178061 27.768223,23.5121644 27.8745132,23.195346 C27.9552591,22.9544007 28.0512666,22.7592371 28.1637263,22.6120047 C28.2756449,22.4641274 28.3855069,22.3537568 28.4949359,22.2779912 C28.6227656,22.1866426 28.7320864,22.1314036 28.8223572,22.1090501 C28.9128446,22.0879862 28.991101,22.0771318 29.0555029,22.0771318 Z" id="Fill-8"></path>
                </g>
            </g>
        </g>
    </g>
</svg>