<?xml version="1.0" encoding="UTF-8"?>
<svg width="53px" height="35px" viewBox="0 0 53 35" version="1.1" xmlns="http://www.w3.org/2000/svg" xmlns:xlink="http://www.w3.org/1999/xlink">
    <title>Flag/Germany</title>
    <g id="Page-1" stroke="none" stroke-width="1" fill="none" fill-rule="evenodd">
        <g id="Copperhead" transform="translate(-839.000000, -11419.000000)" fill-rule="nonzero">
            <g id="Rectangle-3" transform="translate(-349.000000, 5617.000000)">
                <g id="Group-15" transform="translate(0.000000, 2274.000000)">
                    <g id="Group-16" transform="translate(898.000000, 3302.000000)">
                        <g id="Flag/Germany" transform="translate(290.000000, 226.000000)">
                            <rect id="Rectangle" fill="#D80027" x="0" y="0.033874269" width="52" height="34.9321491"></rect>
                            <rect id="Rectangle" fill="#000000" x="0" y="0.033874269" width="53" height="11.6436404"></rect>
                            <rect id="Rectangle" fill="#FFDA44" x="0" y="23.3212573" width="53" height="11.6436404"></rect>
                        </g>
                    </g>
                </g>
            </g>
        </g>
    </g>
</svg>